…
-   Presence of the a = character variable; lots of untidyness

Let’s clean it up

``` r
table_marj %>% 
  select(-contains("P value")) %>% 
  pivot_longer(
    -State, 
    names_to = "age_year", 
    values_to = "percent") %>% 
  separate(age_year, into = c("age", "year"), -11)
```

    ## # A tibble: 560 × 4
    ##    State      age   year        percent
    ##    <chr>      <chr> <chr>       <chr>  
    ##  1 Total U.S. 12+   (2013-2014) 12.90a 
    ##  2 Total U.S. 12+   (2014-2015) 13.36  
    ##  3 Total U.S. 12-17 (2013-2014) 13.28b 
    ##  4 Total U.S. 12-17 (2014-2015) 12.86  
    ##  5 Total U.S. 18-25 (2013-2014) 31.78  
    ##  6 Total U.S. 18-25 (2014-2015) 32.07  
    ##  7 Total U.S. 26+   (2013-2014) 9.63a  
    ##  8 Total U.S. 26+   (2014-2015) 10.25  
    ##  9 Total U.S. 18+   (2013-2014) 12.87a 
    ## 10 Total U.S. 18+   (2014-2015) 13.41  
    ## # … with 550 more rows
…
